<svg xmlns="http://www.w3.org/2000/svg" width="12.524" height="7.676" viewBox="0 0 12.524 7.676">
  <path id="Path_1" data-name="Path 1" d="M258.96,207.632l5.555,5.555,5.555-5.555" transform="translate(-258.253 -206.925)" fill="none" stroke="#fff" stroke-width="2"/>
</svg>
